**
**  $VER: delfina.i 1.0 (30.5.95)
**
** Definitions for delfina.library
**
**

	include "exec/types.i"

* Memory spaces for D_AllocMem *
	BITDEF	DMEM,PROG,0
	BITDEF	DMEM,XDATA,1
	BITDEF	DMEM,YDATA,2
	BITDEF	DMEM,LDATA,3

* options for D_AllocMem and D_AvailMem *
	BITDEF	DMEM,CLEAR,16
	BITDEF	DMEM,LARGEST,17
	BITDEF	DMEM,DISKMEM,18

* definitions for D_Cause() *
	BITDEF	IRQ,IRQA,0
	BITDEF	IRQ,IRQB,1
	BITDEF	IRQ,RESET,2


* Definitions for D_CopyMem() *
* Where to copy: *
	BITDEF	DCP,TO_AMY,8
	BITDEF	DCP,FROM_DELFINA,8
DCPF_FROM_AMY		equ	0
DCPF_TO_DELFINA		equ	0

* Memory spaces: (the same as DMEMF_ definitions) */
	BITDEF	DCP,PROG,0
	BITDEF	DCP,XDATA,1
	BITDEF	DCP,YDATA,2
	BITDEF	DCP,LDATA,3
DCPF_MEMTYPE_MASK equ	$f

* transfer methods: *
DCPF_24BIT	equ	0
DCPF_16BIT	equ	$1000
DCPF_8BIT	equ	$2000
DCPF_32BIT	equ	$3000
DCPF_METHOD_MASK equ	$3000

* mode flags for D_Kill *
	BITDEF	DKILL,DANGER,0


* mode flags for D_Run *
	BITDEF	DRUN,ASYNCH,0


* DelfPrg structure, this is generated by AddPrg.
*  Any of the pointers can be NULL, if the program doesn't use
*  memory in that space.
	STRUCTURE DelfPrg,0
	ULONG	prog
	ULONG	xdata
	ULONG	ydata
	ULONG	ldata
	LABEL	SIZEOF_DelfPrg
